0.000908430232558 0.0093023255814 0.0220930232558
4.54215116279e-05 0.0697674418605 0.0
0.00354287790698 0.108005366726 0.0260137149672
4.54215116279e-05 0.25 0.0
0.0129905523256 0.360383802244 0.0589730037404
9.08430232558e-05 0.488372093023 0.00290697674419
0.00390625 0.545362358031 0.0175094645754
0.0069949127907 0.692124735729 0.0332980972516
0.000635901162791 0.767441860465 0.0078903654485
0.00640443313953 0.969899389741 0.0380587168069
4.54215116279e-05 0.494186046512 0.0406976744186
4.54215116279e-05 0.436046511628 0.0523255813953
0.000363372093023 0.83648255814 0.0654069767442
4.54215116279e-05 0.0116279069767 0.0639534883721
4.54215116279e-05 0.0348837209302 0.0697674418605
0.000272529069767 0.81007751938 0.0746124031008
4.54215116279e-05 0.854651162791 0.0697674418605
0.000272529069767 0.467054263566 0.0833333333333
4.54215116279e-05 0.610465116279 0.0813953488372
0.000726744186047 0.78851744186 0.0955668604651
0.0016351744186 0.179425064599 0.113049095607
4.54215116279e-05 0.302325581395 0.093023255814
4.54215116279e-05 0.587209302326 0.093023255814
0.000635901162791 0.843853820598 0.114617940199
4.54215116279e-05 0.406976744186 0.0988372093023
4.54215116279e-05 0.418604651163 0.0988372093023
4.54215116279e-05 0.744186046512 0.0988372093023
9.08430232558e-05 0.816860465116 0.107558139535
4.54215116279e-05 0.901162790698 0.104651162791
0.000136264534884 0.451550387597 0.114341085271
9.08430232558e-05 0.476744186047 0.113372093023
4.54215116279e-05 0.645348837209 0.116279069767
0.000363372093023 0.761627906977 0.125
4.54215116279e-05 0.116279069767 0.122093023256
0.00267986918605 0.457824201813 0.149881750099
0.000272529069767 0.737403100775 0.125
4.54215116279e-05 0.81976744186 0.122093023256
4.54215116279e-05 0.0988372093023 0.127906976744
4.54215116279e-05 0.156976744186 0.127906976744
4.54215116279e-05 0.43023255814 0.133720930233
0.000181686046512 0.827034883721 0.142441860465
0.000908430232558 0.102906976744 0.154941860465
4.54215116279e-05 0.587209302326 0.139534883721
0.000136264534884 0.751937984496 0.143410852713
9.08430232558e-05 0.776162790698 0.142441860465
4.54215116279e-05 0.505813953488 0.145348837209
0.00245276162791 0.564276485788 0.168389319552
4.54215116279e-05 0.622093023256 0.145348837209
4.54215116279e-05 0.947674418605 0.145348837209
4.54215116279e-05 0.145348837209 0.151162790698
9.08430232558e-05 0.595930232558 0.154069767442
9.08430232558e-05 0.854651162791 0.154069767442
4.54215116279e-05 0.610465116279 0.156976744186
9.08430232558e-05 0.78488372093 0.15988372093
4.54215116279e-05 0.877906976744 0.156976744186
4.54215116279e-05 0.744186046512 0.162790697674
4.54215116279e-05 0.604651162791 0.168604651163
4.54215116279e-05 0.796511627907 0.168604651163
4.54215116279e-05 0.366279069767 0.174418604651
0.00635901162791 0.180149501661 0.219102990033
9.08430232558e-05 0.520348837209 0.183139534884
0.000908430232558 0.62761627907 0.197674418605
4.54215116279e-05 0.424418604651 0.186046511628
4.54215116279e-05 0.46511627907 0.186046511628
4.54215116279e-05 0.389534883721 0.191860465116
0.00390625 0.492293131422 0.221944294213
4.54215116279e-05 0.540697674419 0.191860465116
0.00549600290698 0.423361522199 0.246300211416
4.54215116279e-05 0.598837209302 0.197674418605
0.000317950581395 0.676910299003 0.200166112957
0.000317950581395 0.687707641196 0.21926910299
4.54215116279e-05 0.674418604651 0.232558139535
4.54215116279e-05 0.0174418604651 0.244186046512
4.54215116279e-05 0.133720930233 0.244186046512
4.54215116279e-05 0.639534883721 0.25
4.54215116279e-05 0.71511627907 0.25
4.54215116279e-05 0.755813953488 0.25
4.54215116279e-05 0.674418604651 0.255813953488
0.000136264534884 0.695736434109 0.261627906977
0.0115370639535 0.599180553012 0.314296832082
0.012445494186 0.699265829231 0.337485146834
4.54215116279e-05 0.156976744186 0.273255813953
9.08430232558e-05 0.65988372093 0.276162790698
4.54215116279e-05 0.767441860465 0.273255813953
9.08430232558e-05 0.857558139535 0.279069767442
4.54215116279e-05 0.151162790698 0.28488372093
4.54215116279e-05 0.790697674419 0.28488372093
4.54215116279e-05 0.837209302326 0.28488372093
4.54215116279e-05 0.546511627907 0.290697674419
0.0151707848837 0.907203035789 0.354233393678
4.54215116279e-05 0.122093023256 0.296511627907
4.54215116279e-05 0.837209302326 0.296511627907
4.54215116279e-05 0.093023255814 0.302325581395
0.00690406976744 0.108284883721 0.354574663403
4.54215116279e-05 0.43023255814 0.308139534884
0.00535973837209 0.217826172645 0.365737091052
4.54215116279e-05 0.779069767442 0.331395348837
0.00222565406977 0.46511627907 0.366160417655
4.54215116279e-05 0.767441860465 0.337209302326
4.54215116279e-05 0.790697674419 0.337209302326
9.08430232558e-05 0.0610465116279 0.351744186047
9.08430232558e-05 0.758720930233 0.348837209302
4.54215116279e-05 0.802325581395 0.348837209302
4.54215116279e-05 0.843023255814 0.348837209302
0.000317950581395 0.422757475083 0.366279069767
4.54215116279e-05 0.627906976744 0.360465116279
0.000136264534884 0.843023255814 0.366279069767
4.54215116279e-05 0.627906976744 0.372093023256
4.54215116279e-05 0.168604651163 0.383720930233
4.54215116279e-05 0.738372093023 0.383720930233
4.54215116279e-05 0.122093023256 0.389534883721
4.54215116279e-05 0.453488372093 0.401162790698
0.00177143895349 0.152206320811 0.43038163387
4.54215116279e-05 0.703488372093 0.406976744186
4.54215116279e-05 0.796511627907 0.406976744186
4.54215116279e-05 0.453488372093 0.412790697674
4.54215116279e-05 0.46511627907 0.412790697674
9.08430232558e-05 0.212209302326 0.421511627907
0.00263444767442 0.518043303929 0.444667201283
0.000136264534884 0.757751937984 0.43023255814
4.54215116279e-05 0.418604651163 0.441860465116
0.00417877906977 0.767125884732 0.48843528817
4.54215116279e-05 0.610465116279 0.470930232558
0.0100381540698 0.345496159108 0.535252025676
4.54215116279e-05 0.447674418605 0.476744186047
0.000136264534884 0.513565891473 0.488372093023
0.00199854651163 0.683800211416 0.506738900634
4.54215116279e-05 0.279069767442 0.488372093023
9.08430232558e-05 0.529069767442 0.491279069767
4.54215116279e-05 0.633720930233 0.488372093023
4.54215116279e-05 0.709302325581 0.488372093023
4.54215116279e-05 0.389534883721 0.494186046512
0.00881177325581 0.619395828339 0.54729081755
4.54215116279e-05 0.81976744186 0.494186046512
4.54215116279e-05 0.517441860465 0.505813953488
9.08430232558e-05 0.529069767442 0.508720930233
4.54215116279e-05 0.895348837209 0.505813953488
0.00731286337209 0.0268308536762 0.562942366026
9.08430232558e-05 0.401162790698 0.514534883721
4.54215116279e-05 0.558139534884 0.511627906977
9.08430232558e-05 0.723837209302 0.511627906977
9.08430232558e-05 0.988372093023 0.514534883721
0.000681322674419 0.127519379845 0.537596899225
9.08430232558e-05 0.177325581395 0.520348837209
0.00449672965116 0.247357293869 0.564775663613
0.000136264534884 0.263565891473 0.521317829457
4.54215116279e-05 0.976744186047 0.517441860465
4.54215116279e-05 0.220930232558 0.523255813953
4.54215116279e-05 0.953488372093 0.523255813953
4.54215116279e-05 0.546511627907 0.529069767442
4.54215116279e-05 0.767441860465 0.529069767442
4.54215116279e-05 0.779069767442 0.529069767442
0.00204396802326 0.928682170543 0.563049095607
4.54215116279e-05 0.697674418605 0.540697674419
0.00495094476744 0.785950501387 0.56880733945
4.54215116279e-05 0.28488372093 0.546511627907
4.54215116279e-05 0.53488372093 0.546511627907
0.000181686046512 0.299418604651 0.561046511628
4.54215116279e-05 0.68023255814 0.552325581395
9.08430232558e-05 0.700581395349 0.55523255814
0.00118095930233 0.850849731664 0.583407871199
9.08430232558e-05 0.299418604651 0.587209302326
4.54215116279e-05 0.395348837209 0.587209302326
4.54215116279e-05 0.383720930233 0.593023255814
4.54215116279e-05 0.936046511628 0.598837209302
4.54215116279e-05 0.523255813953 0.604651162791
4.54215116279e-05 0.779069767442 0.604651162791
4.54215116279e-05 0.901162790698 0.604651162791
4.54215116279e-05 0.261627906977 0.610465116279
0.000181686046512 0.857558139535 0.616279069767
0.00513263081395 0.290234616176 0.6622247376
0.00994731104651 0.537166825953 0.685542104704
4.54215116279e-05 0.796511627907 0.622093023256
4.54215116279e-05 0.877906976744 0.627906976744
4.54215116279e-05 0.436046511628 0.651162790698
4.54215116279e-05 0.587209302326 0.651162790698
0.0066769622093 0.140919158361 0.703883879133
4.54215116279e-05 0.575581395349 0.656976744186
0.0035882994186 0.421033264645 0.704960259052
4.54215116279e-05 0.476744186047 0.686046511628
4.54215116279e-05 0.331395348837 0.691860465116
4.54215116279e-05 0.325581395349 0.703488372093
4.54215116279e-05 0.470930232558 0.703488372093
4.54215116279e-05 0.790697674419 0.71511627907
0.00118095930233 0.828041144902 0.729874776386
4.54215116279e-05 0.563953488372 0.732558139535
4.54215116279e-05 0.372093023256 0.738372093023
0.000908430232558 0.0093023255814 0.0220930232558
4.54215116279e-05 0.0697674418605 0.0
0.00354287790698 0.108005366726 0.0260137149672
4.54215116279e-05 0.25 0.0
0.0129905523256 0.360383802244 0.0589730037404
9.08430232558e-05 0.488372093023 0.00290697674419
0.00390625 0.545362358031 0.0175094645754
0.0069949127907 0.692124735729 0.0332980972516
0.000635901162791 0.767441860465 0.0078903654485
0.00640443313953 0.969899389741 0.0380587168069
4.54215116279e-05 0.494186046512 0.0406976744186
4.54215116279e-05 0.436046511628 0.0523255813953
0.000363372093023 0.83648255814 0.0654069767442
4.54215116279e-05 0.0116279069767 0.0639534883721
4.54215116279e-05 0.0348837209302 0.0697674418605
0.000272529069767 0.81007751938 0.0746124031008
4.54215116279e-05 0.854651162791 0.0697674418605
0.000272529069767 0.467054263566 0.0833333333333
4.54215116279e-05 0.610465116279 0.0813953488372
0.000726744186047 0.78851744186 0.0955668604651
0.0016351744186 0.179425064599 0.113049095607
4.54215116279e-05 0.302325581395 0.093023255814
4.54215116279e-05 0.587209302326 0.093023255814
0.000635901162791 0.843853820598 0.114617940199
4.54215116279e-05 0.406976744186 0.0988372093023
4.54215116279e-05 0.418604651163 0.0988372093023
4.54215116279e-05 0.744186046512 0.0988372093023
9.08430232558e-05 0.816860465116 0.107558139535
4.54215116279e-05 0.901162790698 0.104651162791
0.000136264534884 0.451550387597 0.114341085271
9.08430232558e-05 0.476744186047 0.113372093023
4.54215116279e-05 0.645348837209 0.116279069767
0.000363372093023 0.761627906977 0.125
4.54215116279e-05 0.116279069767 0.122093023256
0.00267986918605 0.457824201813 0.149881750099
0.000272529069767 0.737403100775 0.125
4.54215116279e-05 0.81976744186 0.122093023256
4.54215116279e-05 0.0988372093023 0.127906976744
4.54215116279e-05 0.156976744186 0.127906976744
4.54215116279e-05 0.43023255814 0.133720930233
0.000181686046512 0.827034883721 0.142441860465
0.000908430232558 0.102906976744 0.154941860465
4.54215116279e-05 0.587209302326 0.139534883721
0.000136264534884 0.751937984496 0.143410852713
9.08430232558e-05 0.776162790698 0.142441860465
4.54215116279e-05 0.505813953488 0.145348837209
0.00245276162791 0.564276485788 0.168389319552
4.54215116279e-05 0.622093023256 0.145348837209
4.54215116279e-05 0.947674418605 0.145348837209
4.54215116279e-05 0.145348837209 0.151162790698
9.08430232558e-05 0.595930232558 0.154069767442
9.08430232558e-05 0.854651162791 0.154069767442
4.54215116279e-05 0.610465116279 0.156976744186
9.08430232558e-05 0.78488372093 0.15988372093
4.54215116279e-05 0.877906976744 0.156976744186
4.54215116279e-05 0.744186046512 0.162790697674
4.54215116279e-05 0.604651162791 0.168604651163
4.54215116279e-05 0.796511627907 0.168604651163
4.54215116279e-05 0.366279069767 0.174418604651
0.00635901162791 0.180149501661 0.219102990033
9.08430232558e-05 0.520348837209 0.183139534884
0.000908430232558 0.62761627907 0.197674418605
4.54215116279e-05 0.424418604651 0.186046511628
4.54215116279e-05 0.46511627907 0.186046511628
4.54215116279e-05 0.389534883721 0.191860465116
0.00390625 0.492293131422 0.221944294213
4.54215116279e-05 0.540697674419 0.191860465116
0.00549600290698 0.423361522199 0.246300211416
4.54215116279e-05 0.598837209302 0.197674418605
0.000317950581395 0.676910299003 0.200166112957
0.000317950581395 0.687707641196 0.21926910299
4.54215116279e-05 0.674418604651 0.232558139535
4.54215116279e-05 0.0174418604651 0.244186046512
4.54215116279e-05 0.133720930233 0.244186046512
4.54215116279e-05 0.639534883721 0.25
4.54215116279e-05 0.71511627907 0.25
4.54215116279e-05 0.755813953488 0.25
4.54215116279e-05 0.674418604651 0.255813953488
0.000136264534884 0.695736434109 0.261627906977
0.0115370639535 0.599180553012 0.314296832082
0.012445494186 0.699265829231 0.337485146834
4.54215116279e-05 0.156976744186 0.273255813953
9.08430232558e-05 0.65988372093 0.276162790698
4.54215116279e-05 0.767441860465 0.273255813953
9.08430232558e-05 0.857558139535 0.279069767442
4.54215116279e-05 0.151162790698 0.28488372093
4.54215116279e-05 0.790697674419 0.28488372093
4.54215116279e-05 0.837209302326 0.28488372093
4.54215116279e-05 0.546511627907 0.290697674419
0.0151707848837 0.907203035789 0.354233393678
4.54215116279e-05 0.122093023256 0.296511627907
4.54215116279e-05 0.837209302326 0.296511627907
4.54215116279e-05 0.093023255814 0.302325581395
0.00690406976744 0.108284883721 0.354574663403
4.54215116279e-05 0.43023255814 0.308139534884
0.00535973837209 0.217826172645 0.365737091052
4.54215116279e-05 0.779069767442 0.331395348837
0.00222565406977 0.46511627907 0.366160417655
4.54215116279e-05 0.767441860465 0.337209302326
4.54215116279e-05 0.790697674419 0.337209302326
9.08430232558e-05 0.0610465116279 0.351744186047
9.08430232558e-05 0.758720930233 0.348837209302
4.54215116279e-05 0.802325581395 0.348837209302
4.54215116279e-05 0.843023255814 0.348837209302
0.000317950581395 0.422757475083 0.366279069767
4.54215116279e-05 0.627906976744 0.360465116279
0.000136264534884 0.843023255814 0.366279069767
4.54215116279e-05 0.627906976744 0.372093023256
4.54215116279e-05 0.168604651163 0.383720930233
4.54215116279e-05 0.738372093023 0.383720930233
4.54215116279e-05 0.122093023256 0.389534883721
4.54215116279e-05 0.453488372093 0.401162790698
0.00177143895349 0.152206320811 0.43038163387
4.54215116279e-05 0.703488372093 0.406976744186
4.54215116279e-05 0.796511627907 0.406976744186
4.54215116279e-05 0.453488372093 0.412790697674
4.54215116279e-05 0.46511627907 0.412790697674
9.08430232558e-05 0.212209302326 0.421511627907
0.00263444767442 0.518043303929 0.444667201283
0.000136264534884 0.757751937984 0.43023255814
4.54215116279e-05 0.418604651163 0.441860465116
0.00417877906977 0.767125884732 0.48843528817
4.54215116279e-05 0.610465116279 0.470930232558
0.0100381540698 0.345496159108 0.535252025676
4.54215116279e-05 0.447674418605 0.476744186047
0.000136264534884 0.513565891473 0.488372093023
0.00199854651163 0.683800211416 0.506738900634
4.54215116279e-05 0.279069767442 0.488372093023
9.08430232558e-05 0.529069767442 0.491279069767
4.54215116279e-05 0.633720930233 0.488372093023
4.54215116279e-05 0.709302325581 0.488372093023
4.54215116279e-05 0.389534883721 0.494186046512
0.00881177325581 0.619395828339 0.54729081755
4.54215116279e-05 0.81976744186 0.494186046512
4.54215116279e-05 0.517441860465 0.505813953488
9.08430232558e-05 0.529069767442 0.508720930233
4.54215116279e-05 0.895348837209 0.505813953488
0.00731286337209 0.0268308536762 0.562942366026
9.08430232558e-05 0.401162790698 0.514534883721
4.54215116279e-05 0.558139534884 0.511627906977
9.08430232558e-05 0.723837209302 0.511627906977
9.08430232558e-05 0.988372093023 0.514534883721
0.000681322674419 0.127519379845 0.537596899225
9.08430232558e-05 0.177325581395 0.520348837209
0.00449672965116 0.247357293869 0.564775663613
0.000136264534884 0.263565891473 0.521317829457
4.54215116279e-05 0.976744186047 0.517441860465
4.54215116279e-05 0.220930232558 0.523255813953
4.54215116279e-05 0.953488372093 0.523255813953
4.54215116279e-05 0.546511627907 0.529069767442
4.54215116279e-05 0.767441860465 0.529069767442
4.54215116279e-05 0.779069767442 0.529069767442
0.00204396802326 0.928682170543 0.563049095607
4.54215116279e-05 0.697674418605 0.540697674419
0.00495094476744 0.785950501387 0.56880733945
4.54215116279e-05 0.28488372093 0.546511627907
4.54215116279e-05 0.53488372093 0.546511627907
0.000181686046512 0.299418604651 0.561046511628
4.54215116279e-05 0.68023255814 0.552325581395
9.08430232558e-05 0.700581395349 0.55523255814
0.00118095930233 0.850849731664 0.583407871199
9.08430232558e-05 0.299418604651 0.587209302326
4.54215116279e-05 0.395348837209 0.587209302326
4.54215116279e-05 0.383720930233 0.593023255814
4.54215116279e-05 0.936046511628 0.598837209302
4.54215116279e-05 0.523255813953 0.604651162791
4.54215116279e-05 0.779069767442 0.604651162791
4.54215116279e-05 0.901162790698 0.604651162791
4.54215116279e-05 0.261627906977 0.610465116279
0.000181686046512 0.857558139535 0.616279069767
0.00513263081395 0.290234616176 0.6622247376
0.00994731104651 0.537166825953 0.685542104704
4.54215116279e-05 0.796511627907 0.622093023256
4.54215116279e-05 0.877906976744 0.627906976744
4.54215116279e-05 0.436046511628 0.651162790698
4.54215116279e-05 0.587209302326 0.651162790698
0.0066769622093 0.140919158361 0.703883879133
4.54215116279e-05 0.575581395349 0.656976744186
0.0035882994186 0.421033264645 0.704960259052
4.54215116279e-05 0.476744186047 0.686046511628
4.54215116279e-05 0.331395348837 0.691860465116
4.54215116279e-05 0.325581395349 0.703488372093
4.54215116279e-05 0.470930232558 0.703488372093
4.54215116279e-05 0.790697674419 0.71511627907
0.00118095930233 0.828041144902 0.729874776386
4.54215116279e-05 0.563953488372 0.732558139535
4.54215116279e-05 0.372093023256 0.738372093023
0.000908430232558 0.0093023255814 0.0220930232558
4.54215116279e-05 0.0697674418605 0.0
0.00354287790698 0.108005366726 0.0260137149672
4.54215116279e-05 0.25 0.0
0.0129905523256 0.360383802244 0.0589730037404
9.08430232558e-05 0.488372093023 0.00290697674419
0.00390625 0.545362358031 0.0175094645754
0.0069949127907 0.692124735729 0.0332980972516
0.000635901162791 0.767441860465 0.0078903654485
0.00640443313953 0.969899389741 0.0380587168069
4.54215116279e-05 0.494186046512 0.0406976744186
4.54215116279e-05 0.436046511628 0.0523255813953
0.000363372093023 0.83648255814 0.0654069767442
4.54215116279e-05 0.0116279069767 0.0639534883721
4.54215116279e-05 0.0348837209302 0.0697674418605
0.000272529069767 0.81007751938 0.0746124031008
4.54215116279e-05 0.854651162791 0.0697674418605
0.000272529069767 0.467054263566 0.0833333333333
4.54215116279e-05 0.610465116279 0.0813953488372
0.000726744186047 0.78851744186 0.0955668604651
0.0016351744186 0.179425064599 0.113049095607
4.54215116279e-05 0.302325581395 0.093023255814
4.54215116279e-05 0.587209302326 0.093023255814
0.000635901162791 0.843853820598 0.114617940199
4.54215116279e-05 0.406976744186 0.0988372093023
4.54215116279e-05 0.418604651163 0.0988372093023
4.54215116279e-05 0.744186046512 0.0988372093023
9.08430232558e-05 0.816860465116 0.107558139535
4.54215116279e-05 0.901162790698 0.104651162791
0.000136264534884 0.451550387597 0.114341085271
9.08430232558e-05 0.476744186047 0.113372093023
4.54215116279e-05 0.645348837209 0.116279069767
0.000363372093023 0.761627906977 0.125
4.54215116279e-05 0.116279069767 0.122093023256
0.00267986918605 0.457824201813 0.149881750099
0.000272529069767 0.737403100775 0.125
4.54215116279e-05 0.81976744186 0.122093023256
4.54215116279e-05 0.0988372093023 0.127906976744
4.54215116279e-05 0.156976744186 0.127906976744
4.54215116279e-05 0.43023255814 0.133720930233
0.000181686046512 0.827034883721 0.142441860465
0.000908430232558 0.102906976744 0.154941860465
4.54215116279e-05 0.587209302326 0.139534883721
0.000136264534884 0.751937984496 0.143410852713
9.08430232558e-05 0.776162790698 0.142441860465
4.54215116279e-05 0.505813953488 0.145348837209
0.00245276162791 0.564276485788 0.168389319552
4.54215116279e-05 0.622093023256 0.145348837209
4.54215116279e-05 0.947674418605 0.145348837209
4.54215116279e-05 0.145348837209 0.151162790698
9.08430232558e-05 0.595930232558 0.154069767442
9.08430232558e-05 0.854651162791 0.154069767442
4.54215116279e-05 0.610465116279 0.156976744186
9.08430232558e-05 0.78488372093 0.15988372093
4.54215116279e-05 0.877906976744 0.156976744186
4.54215116279e-05 0.744186046512 0.162790697674
4.54215116279e-05 0.604651162791 0.168604651163
4.54215116279e-05 0.796511627907 0.168604651163
4.54215116279e-05 0.366279069767 0.174418604651
0.00635901162791 0.180149501661 0.219102990033
9.08430232558e-05 0.520348837209 0.183139534884
0.000908430232558 0.62761627907 0.197674418605
4.54215116279e-05 0.424418604651 0.186046511628
4.54215116279e-05 0.46511627907 0.186046511628
4.54215116279e-05 0.389534883721 0.191860465116
0.00390625 0.492293131422 0.221944294213
4.54215116279e-05 0.540697674419 0.191860465116
0.00549600290698 0.423361522199 0.246300211416
4.54215116279e-05 0.598837209302 0.197674418605
0.000317950581395 0.676910299003 0.200166112957
0.000317950581395 0.687707641196 0.21926910299
4.54215116279e-05 0.674418604651 0.232558139535
4.54215116279e-05 0.0174418604651 0.244186046512
4.54215116279e-05 0.133720930233 0.244186046512
4.54215116279e-05 0.639534883721 0.25
4.54215116279e-05 0.71511627907 0.25
4.54215116279e-05 0.755813953488 0.25
4.54215116279e-05 0.674418604651 0.255813953488
0.000136264534884 0.695736434109 0.261627906977
0.0115370639535 0.599180553012 0.314296832082
0.012445494186 0.699265829231 0.337485146834
4.54215116279e-05 0.156976744186 0.273255813953
9.08430232558e-05 0.65988372093 0.276162790698
4.54215116279e-05 0.767441860465 0.273255813953
9.08430232558e-05 0.857558139535 0.279069767442
4.54215116279e-05 0.151162790698 0.28488372093
4.54215116279e-05 0.790697674419 0.28488372093
4.54215116279e-05 0.837209302326 0.28488372093
4.54215116279e-05 0.546511627907 0.290697674419
0.0151707848837 0.907203035789 0.354233393678
4.54215116279e-05 0.122093023256 0.296511627907
4.54215116279e-05 0.837209302326 0.296511627907
4.54215116279e-05 0.093023255814 0.302325581395
0.00690406976744 0.108284883721 0.354574663403
4.54215116279e-05 0.43023255814 0.308139534884
0.00535973837209 0.217826172645 0.365737091052
4.54215116279e-05 0.779069767442 0.331395348837
0.00222565406977 0.46511627907 0.366160417655
4.54215116279e-05 0.767441860465 0.337209302326
4.54215116279e-05 0.790697674419 0.337209302326
9.08430232558e-05 0.0610465116279 0.351744186047
9.08430232558e-05 0.758720930233 0.348837209302
4.54215116279e-05 0.802325581395 0.348837209302
4.54215116279e-05 0.843023255814 0.348837209302
0.000317950581395 0.422757475083 0.366279069767
4.54215116279e-05 0.627906976744 0.360465116279
0.000136264534884 0.843023255814 0.366279069767
4.54215116279e-05 0.627906976744 0.372093023256
4.54215116279e-05 0.168604651163 0.383720930233
4.54215116279e-05 0.738372093023 0.383720930233
4.54215116279e-05 0.122093023256 0.389534883721
4.54215116279e-05 0.453488372093 0.401162790698
0.00177143895349 0.152206320811 0.43038163387
4.54215116279e-05 0.703488372093 0.406976744186
4.54215116279e-05 0.796511627907 0.406976744186
4.54215116279e-05 0.453488372093 0.412790697674
4.54215116279e-05 0.46511627907 0.412790697674
9.08430232558e-05 0.212209302326 0.421511627907
0.00263444767442 0.518043303929 0.444667201283
0.000136264534884 0.757751937984 0.43023255814
4.54215116279e-05 0.418604651163 0.441860465116
0.00417877906977 0.767125884732 0.48843528817
4.54215116279e-05 0.610465116279 0.470930232558
0.0100381540698 0.345496159108 0.535252025676
4.54215116279e-05 0.447674418605 0.476744186047
0.000136264534884 0.513565891473 0.488372093023
0.00199854651163 0.683800211416 0.506738900634
4.54215116279e-05 0.279069767442 0.488372093023
9.08430232558e-05 0.529069767442 0.491279069767
4.54215116279e-05 0.633720930233 0.488372093023
4.54215116279e-05 0.709302325581 0.488372093023
4.54215116279e-05 0.389534883721 0.494186046512
0.00881177325581 0.619395828339 0.54729081755
4.54215116279e-05 0.81976744186 0.494186046512
4.54215116279e-05 0.517441860465 0.505813953488
9.08430232558e-05 0.529069767442 0.508720930233
4.54215116279e-05 0.895348837209 0.505813953488
0.00731286337209 0.0268308536762 0.562942366026
9.08430232558e-05 0.401162790698 0.514534883721
4.54215116279e-05 0.558139534884 0.511627906977
9.08430232558e-05 0.723837209302 0.511627906977
9.08430232558e-05 0.988372093023 0.514534883721
0.000681322674419 0.127519379845 0.537596899225
9.08430232558e-05 0.177325581395 0.520348837209
0.00449672965116 0.247357293869 0.564775663613
0.000136264534884 0.263565891473 0.521317829457
4.54215116279e-05 0.976744186047 0.517441860465
4.54215116279e-05 0.220930232558 0.523255813953
4.54215116279e-05 0.953488372093 0.523255813953
4.54215116279e-05 0.546511627907 0.529069767442
4.54215116279e-05 0.767441860465 0.529069767442
4.54215116279e-05 0.779069767442 0.529069767442
0.00204396802326 0.928682170543 0.563049095607
4.54215116279e-05 0.697674418605 0.540697674419
0.00495094476744 0.785950501387 0.56880733945
4.54215116279e-05 0.28488372093 0.546511627907
4.54215116279e-05 0.53488372093 0.546511627907
0.000181686046512 0.299418604651 0.561046511628
4.54215116279e-05 0.68023255814 0.552325581395
9.08430232558e-05 0.700581395349 0.55523255814
0.00118095930233 0.850849731664 0.583407871199
9.08430232558e-05 0.299418604651 0.587209302326
4.54215116279e-05 0.395348837209 0.587209302326
4.54215116279e-05 0.383720930233 0.593023255814
4.54215116279e-05 0.936046511628 0.598837209302
4.54215116279e-05 0.523255813953 0.604651162791
4.54215116279e-05 0.779069767442 0.604651162791
4.54215116279e-05 0.901162790698 0.604651162791
4.54215116279e-05 0.261627906977 0.610465116279
0.000181686046512 0.857558139535 0.616279069767
0.00513263081395 0.290234616176 0.6622247376
0.00994731104651 0.537166825953 0.685542104704
4.54215116279e-05 0.796511627907 0.622093023256
4.54215116279e-05 0.877906976744 0.627906976744
4.54215116279e-05 0.436046511628 0.651162790698
4.54215116279e-05 0.587209302326 0.651162790698
0.0066769622093 0.140919158361 0.703883879133
4.54215116279e-05 0.575581395349 0.656976744186
0.0035882994186 0.421033264645 0.704960259052
4.54215116279e-05 0.476744186047 0.686046511628
4.54215116279e-05 0.331395348837 0.691860465116
4.54215116279e-05 0.325581395349 0.703488372093
4.54215116279e-05 0.470930232558 0.703488372093
4.54215116279e-05 0.790697674419 0.71511627907
0.00118095930233 0.828041144902 0.729874776386
4.54215116279e-05 0.563953488372 0.732558139535
4.54215116279e-05 0.372093023256 0.738372093023
